<svg xmlns="http://www.w3.org/2000/svg" width="18" height="18" viewBox="0 0 18 18">
    <g fill="none" fill-rule="evenodd">
        <path d="M0 0H24V24H0z" transform="translate(-3 -3)"/>
        <path fill="#C4C4C4" fill-rule="nonzero" d="M19 5h-2V3H7v2H5c-1.1 0-2 .9-2 2v1c0 2.55 1.92 4.63 4.39 4.94.63 1.5 1.98 2.63 3.61 2.96V19H7v2h10v-2h-4v-3.1c1.63-.33 2.98-1.46 3.61-2.96C19.08 12.63 21 10.55 21 8V7c0-1.1-.9-2-2-2zM7 10.82C5.84 10.4 5 9.3 5 8V7h2v3.82zM19 8c0 1.3-.84 2.4-2 2.82V7h2v1z" transform="translate(-3 -3)"/>
    </g>
</svg>
